document	Coo_Export_1_sent	
Bertuccietal.-2015	22	
Božičevićetal.-2015	3	
Churcheretal.-2015	10	
Clowers,Will,Gasch-2015	 	
Daltonetal.-2015	6	
Dayan,Crawford,Oleksiak-2015	2	
Delmoreetal.-2015	1	
DiCesareetal.-2015	 	
Gibbons,Rudman,Schulte-2016	6	
Gleason,Burton-2015	1	
Hemond,Vollmer-2015	16	
Hodginsetal.-2015	 	
Huangetal.-2016	11	
Jonesetal.-2015	4	
Komoroskeetal.-2015	3	
Kvistetal.-2015	2	
Laporteetal.-2015	 	
Lemay,Russello-2015	 	
Mattilaetal.-2015	 	
Pfenningeretal.-2015	 	
Poelstraetal.-2015	7	
Postma,gren-2015	 	
Roschanskietal.-2015	 	
Rueggetal.-2014	2	
Sainoetal.-2015	2	
Sander,Hall-2015	 	
Schweizeretal.-2015-1	 	
Schweizeretal.-2015-2	1	
Wenzeletal.-2015	 	
Xuetal.-2015	1	
